<?xml version="1.0" encoding="utf-8"?>
<!-- Generator: Adobe Illustrator 21.1.0, SVG Export Plug-In . SVG Version: 6.00 Build 0)  -->
<svg version="1.1" id="Layer_1" xmlns="http://www.w3.org/2000/svg" xmlns:xlink="http://www.w3.org/1999/xlink" x="0px" y="0px"
	 viewBox="0 0 463 320.2" style="enable-background:new 0 0 463 320.2;" xml:space="preserve">
<style type="text/css">
	.st0{fill:none;stroke:#00E6EA;stroke-width:2.9818;stroke-miterlimit:10;}
	.st1{fill:none;}
	.st2{fill:#956B00;}
	.st3{fill:#926900;}
	.st4{fill:#FCB500;}
	.st5{fill:#CAD2DE;}
	.st6{fill:url(#SVGID_1_);}
	.st7{fill:url(#SVGID_2_);}
	.st8{fill:url(#SVGID_3_);}
	.st9{fill:url(#SVGID_4_);}
	.st10{fill:#005C87;}
	.st11{fill:#024361;}
	.st12{fill:#023E59;}
	.st13{fill:#818181;}
	.st14{fill:#BDBDBD;}
	.st15{fill:#004D73;}
	.st16{fill:#0070A6;}
	.st17{fill:#004C70;}
	.st18{fill:url(#SVGID_5_);}
	.st19{fill:url(#SVGID_6_);}
	.st20{fill:url(#SVGID_7_);}
	.st21{fill:url(#SVGID_8_);}
	.st22{fill:url(#SVGID_9_);}
	.st23{fill:url(#SVGID_10_);}
	.st24{fill:url(#SVGID_11_);}
	.st25{fill:url(#SVGID_12_);}
	.st26{fill:url(#SVGID_13_);}
	.st27{fill:url(#SVGID_14_);}
	.st28{fill:url(#SVGID_15_);}
	.st29{fill:url(#SVGID_16_);}
	.st30{fill:url(#SVGID_17_);}
	.st31{fill:url(#SVGID_18_);}
	.st32{fill:url(#SVGID_19_);}
	.st33{fill:#EEEFF1;}
	.st34{fill:url(#SVGID_20_);}
</style>
<g>
	<g id="amp-onder">
		<path class="st0" d="M374.8,86.8c-79.2-45.5-207.5-45.5-286.7,0"/>
		<path class="st0" d="M352.2,136.1c-66.7-38.3-174.8-38.3-241.4,0"/>
		<path class="st0" d="M329.3,183.1c-54-31-141.7-31-195.7,0"/>
		<path class="st0" d="M394.1,40.2c-89.8-51.6-235.5-51.6-325.3,0"/>
	</g>
	<g id="artwork">
		<g>
			<line class="st1" x1="107.3" y1="239.1" x2="110.5" y2="241"/>
		</g>
		<g>
			<polygon class="st2" points="110.5,241 107.3,239.1 110.5,237.3 113.7,239.2 			"/>
		</g>
		<g>
			<polygon class="st3" points="152.6,249.3 149.5,247.4 149.8,209.2 153,211.1 			"/>
		</g>
		<g>
			<polygon class="st2" points="153,211.1 149.8,209.2 152.9,207.4 156.1,209.3 			"/>
		</g>
		<g>
			<polygon class="st4" points="156.1,209.3 155.8,247.5 152.6,249.3 153,211.1 			"/>
		</g>
		<g>
			<polygon class="st3" points="189.1,229.3 185.9,227.4 186.2,189.2 189.4,191.1 			"/>
		</g>
		<g>
			<polygon class="st2" points="189.4,191.1 186.2,189.2 189.4,187.5 192.6,189.3 			"/>
		</g>
		<g>
			<polygon class="st4" points="192.6,189.3 192.2,227.5 189.1,229.3 189.4,191.1 			"/>
		</g>
		<g>
			<polygon class="st3" points="227.8,208.2 224.6,206.3 225,168.2 228.1,170 			"/>
		</g>
		<g>
			<polygon class="st2" points="228.1,170 225,168.2 228.1,166.4 231.3,168.3 			"/>
		</g>
		<g>
			<polygon class="st4" points="231.3,168.3 230.9,206.4 227.8,208.2 228.1,170 			"/>
		</g>
		<g>
			<polygon class="st3" points="263.3,188.4 260.1,186.5 260.4,148.4 263.6,150.2 			"/>
		</g>
		<g>
			<polygon class="st2" points="263.6,150.2 260.4,148.4 263.6,146.6 266.7,148.5 			"/>
		</g>
		<g>
			<polygon class="st4" points="266.7,148.5 266.4,186.6 263.3,188.4 263.6,150.2 			"/>
		</g>
		<g>
			<polygon class="st3" points="298.1,167.9 295,166 295.3,127.9 298.5,129.7 			"/>
		</g>
		<g>
			<polygon class="st2" points="298.5,129.7 295.3,127.9 298.4,126.1 301.6,128 			"/>
		</g>
		<g>
			<polygon class="st4" points="301.6,128 301.3,166.1 298.1,167.9 298.5,129.7 			"/>
		</g>
		<g>
			<polygon class="st5" points="99.2,252 94.5,249.2 94.6,244.1 99.3,246.9 			"/>
		</g>
		<g>
			
				<linearGradient id="SVGID_1_" gradientUnits="userSpaceOnUse" x1="90.6409" y1="138.4809" x2="310.7409" y2="138.4809" gradientTransform="matrix(1 0 0 -1 0 321.0718)">
				<stop  offset="0" style="stop-color:#E3E8F5"/>
				<stop  offset="1" style="stop-color:#FFFFFF"/>
			</linearGradient>
			<polygon class="st6" points="95.3,244.9 90.6,242.1 306,120.3 310.7,123.1 			"/>
		</g>
		
			<linearGradient id="SVGID_2_" gradientUnits="userSpaceOnUse" x1="95.2409" y1="134.8809" x2="311.7409" y2="134.8809" gradientTransform="matrix(1 0 0 -1 0 321.0718)">
			<stop  offset="0" style="stop-color:#99A5C1"/>
			<stop  offset="1" style="stop-color:#CDD3DD"/>
		</linearGradient>
		<polygon class="st7" points="95.3,244.9 95.2,250 106.5,243.6 109.6,241.8 311.7,127.5 311.7,122.4 		"/>
		<g>
			<polygon class="st3" points="296.5,158.5 293.3,156.6 293.6,118.5 296.8,120.4 			"/>
		</g>
		<g>
			<polygon class="st2" points="296.8,120.4 293.6,118.5 296.8,116.7 299.9,118.6 			"/>
		</g>
		<g>
			<polygon class="st4" points="299.9,118.6 299.6,156.7 296.5,158.5 296.8,120.4 			"/>
		</g>
		<g>
			
				<linearGradient id="SVGID_3_" gradientUnits="userSpaceOnUse" x1="273.6409" y1="199.4809" x2="311.3409" y2="199.4809" gradientTransform="matrix(1 0 0 -1 0 321.0718)">
				<stop  offset="0" style="stop-color:#E3E8F5"/>
				<stop  offset="1" style="stop-color:#FFFFFF"/>
			</linearGradient>
			<polygon class="st8" points="273.6,128.2 306.6,109.5 311.3,112.3 273.6,133.7 			"/>
		</g>
		<g>
			
				<linearGradient id="SVGID_4_" gradientUnits="userSpaceOnUse" x1="273.5409" y1="195.5809" x2="311.2908" y2="195.5809" gradientTransform="matrix(1 0 0 -1 0 321.0718)">
				<stop  offset="0" style="stop-color:#99A5C1"/>
				<stop  offset="1" style="stop-color:#CDD3DD"/>
			</linearGradient>
			<polygon class="st9" points="273.6,133.7 311.3,112.3 311.2,117.4 273.5,138.7 			"/>
		</g>
		<path class="st10" d="M124.3,240.2c1,0.3,2.1,0.3,3.2,0.1c1.2-0.2,2.4-0.6,3.7-1.2c0.3-0.1,0.5-0.3,0.8-0.4l0.6-0.3l43.4,25.8
			l-0.6,0.3c-0.3,0.1-0.5,0.3-0.8,0.4c-1.3,0.6-2.5,1.1-3.7,1.2c-1.2,0.2-2.2,0.1-3.2-0.1c-0.6-0.2-1.2-0.4-1.7-0.7l-43.4-25.8
			C123.1,239.8,123.7,240,124.3,240.2z"/>
		<path class="st11" d="M162.2,256.8l-4.1,2.3c-0.1,11,7.6,15.5,17.2,10.1l0.6-0.3v-4.7l-0.6,0.3C168,268.6,162.1,265.1,162.2,256.8
			z"/>
		<path class="st12" d="M342,163.7c-0.3,0.6-0.6,1.2-0.9,1.8l-43.4-25.8c0.3-0.6,0.6-1.1,0.8-1.7L342,163.7z"/>
		<polygon class="st10" points="348.4,151.7 305.1,125.9 300.9,128.3 344.3,154.1 		"/>
		<polygon class="st12" points="330.4,177 287,151.2 287,155.9 330.4,181.7 		"/>
		<path class="st10" d="M287.6,150.9c4.1-2.3,7.7-6.5,10.2-11.1l43.4,25.8c-2.5,4.7-6.1,8.8-10.2,11.1l-0.6,0.3L287,151.2
			L287.6,150.9z"/>
		<path class="st11" d="M344.3,154.1c-0.1,8.3-6.1,18.5-13.4,22.6l-0.6,0.3v4.7l0.6-0.3c9.6-5.4,17.5-18.7,17.5-29.7L344.3,154.1z"
			/>
		<polygon class="st12" points="308.8,189.2 265.5,163.4 265.4,168.1 308.8,193.9 		"/>
		<polygon class="st10" points="326.8,179 283.4,153.2 265.5,163.4 308.8,189.2 		"/>
		<polygon class="st11" points="308.8,189.2 308.8,193.9 326.7,183.8 326.8,179 		"/>
		<polygon class="st12" points="287.3,201.3 243.9,175.5 243.9,180.2 287.2,206 		"/>
		<polygon class="st10" points="305.2,191.2 261.8,165.4 243.9,175.5 287.3,201.3 		"/>
		<polygon class="st11" points="287.3,201.3 287.2,206 305.2,195.9 305.2,191.2 		"/>
		<polygon class="st12" points="265.7,213.5 222.3,187.7 222.3,192.4 265.7,218.2 		"/>
		<polygon class="st10" points="283.7,203.3 240.3,177.5 222.3,187.7 265.7,213.5 		"/>
		<polygon class="st11" points="265.7,213.5 265.7,218.2 283.6,208.1 283.7,203.3 		"/>
		<polygon class="st12" points="244.2,225.6 200.8,199.8 200.8,204.6 244.1,230.4 		"/>
		<polygon class="st10" points="262.1,215.5 218.7,189.7 200.8,199.8 244.2,225.6 		"/>
		<polygon class="st11" points="244.2,225.6 244.1,230.4 262.1,220.2 262.1,215.5 		"/>
		<polygon class="st12" points="222.6,237.8 179.2,212 179.2,216.7 222.6,242.5 		"/>
		<polygon class="st10" points="240.6,227.7 197.2,201.9 179.2,212 222.6,237.8 		"/>
		<polygon class="st11" points="222.6,237.8 222.6,242.5 240.5,232.4 240.6,227.7 		"/>
		<polygon class="st12" points="201.1,249.9 157.7,224.1 157.6,228.9 201,254.7 		"/>
		<polygon class="st10" points="219,239.8 175.6,214 157.7,224.1 201.1,249.9 		"/>
		<polygon class="st11" points="201.1,249.9 201,254.7 219,244.5 219,239.8 		"/>
		<polygon class="st12" points="179.5,262.1 136.1,236.3 136.1,241 179.5,266.8 		"/>
		<polygon class="st10" points="197.4,252 154.1,226.2 136.1,236.3 179.5,262.1 		"/>
		<polygon class="st11" points="179.5,262.1 179.5,266.8 197.4,256.7 197.4,252 		"/>
		<path class="st13" d="M161,216.5c-2.2-1.3-5.2-1.3-8.5,0.2c-0.4,0.2-0.8,0.4-1.2,0.6c-1,0.6-2,1.3-3,2.1c-1.6,1.3-3.1,2.9-4.5,4.7
			c-2.6,3.3-4.6,7.3-5.6,11.2c-0.5,1.8-0.8,3.7-0.8,5.5c0,0.1,0,0.3,0,0.4c0,1.6,0.3,3,0.7,4.3c0.7,1.9,1.8,3.3,3.2,4.1l25.3,15
			c-1.4-0.8-2.5-2.2-3.2-4.1c-0.4-1.2-0.7-2.6-0.7-4.3c0-0.1,0-0.3,0-0.4c0-1.8,0.3-3.6,0.8-5.5c1-3.9,3-7.9,5.6-11.2
			c1.4-1.8,2.9-3.3,4.5-4.7c1-0.8,2-1.5,3-2.1c0.4-0.2,0.8-0.4,1.2-0.6c3.3-1.6,6.3-1.6,8.5-0.2L161,216.5z"/>
		<g>
			<path class="st14" d="M176.6,232.3c7.6-4.3,13.7-0.7,13.6,7.9c-0.1,8.7-6.3,19.1-13.8,23.4s-13.7,0.7-13.6-7.9
				C162.8,247.1,169,236.6,176.6,232.3z"/>
		</g>
		<path class="st15" d="M297.2,119.8l43.4,25.8c2.4,1.4,3.8,4.3,3.8,8.5c0,0.7-0.1,1.4-0.1,2.1c-0.2,1.5-0.5,3-1,4.5
			c-0.3,1-0.7,2-1.2,3L298.6,138c0.5-1,0.9-2.1,1.2-3.1c0.5-1.5,0.8-3,1-4.5c0.1-0.7,0.1-1.4,0.1-2.1
			C301,124.1,299.5,121.2,297.2,119.8z"/>
		<path class="st13" d="M292.6,118.4c-2-1.2-4.8-1.2-7.9,0.2c-0.4,0.2-0.7,0.4-1.1,0.6c-0.9,0.5-1.9,1.2-2.8,1.9
			c-1.5,1.2-2.9,2.7-4.1,4.3c-2.4,3.1-4.2,6.8-5.2,10.4c-0.4,1.7-0.7,3.4-0.7,5c0,0.1,0,0.3,0,0.4c0,1.5,0.3,2.8,0.7,3.9
			c0.6,1.7,1.6,3,2.9,3.8l47.2,28.1c-1.3-0.8-2.3-2.1-2.9-3.8c-0.4-1.1-0.6-2.4-0.7-3.9c0-0.1,0-0.3,0-0.4c0-1.6,0.3-3.3,0.7-5
			c0.9-3.6,2.8-7.3,5.2-10.4c1.2-1.6,2.6-3.1,4.1-4.3c0.9-0.7,1.8-1.4,2.8-1.9c0.4-0.2,0.7-0.4,1.1-0.6c3.1-1.4,5.8-1.4,7.9-0.2
			L292.6,118.4z"/>
		<g>
			<path class="st14" d="M330.8,147.3c7-4,12.6-0.7,12.6,7.3c-0.1,8-5.8,17.7-12.8,21.7S318,177,318,169
				C318.1,161,323.8,151.3,330.8,147.3z"/>
		</g>
		<polygon class="st10" points="162.2,256.8 118.8,231 114.7,233.3 158.1,259.1 		"/>
		<path class="st10" d="M114.8,230.5c0.2-2,0.7-4,1.3-6c0.7-2.1,1.6-4.3,2.7-6.3l43.4,25.8c-1.1,2.1-2,4.2-2.7,6.3
			c-0.6,2-1.1,4-1.3,6c-0.1,0.9-0.2,1.9-0.2,2.8l-43.4-25.8C114.7,232.4,114.7,231.5,114.8,230.5z"/>
		<path class="st11" d="M175.6,229.4c-9.6,5.4-17.5,18.7-17.5,29.7l4.1-2.3c0.1-8.3,6.1-18.5,13.4-22.6l0.6-0.3v-4.7L175.6,229.4z"
			/>
		<path class="st16" d="M287.8,115.9c0.3-0.2,0.7-0.4,1-0.5c1.7-0.9,3.3-1.4,4.9-1.6c1.5-0.2,2.9-0.2,4.2,0.2
			c0.8,0.2,1.5,0.5,2.2,0.9l43.4,25.8c-0.7-0.4-1.4-0.7-2.2-0.9c-1.3-0.3-2.7-0.4-4.2-0.2s-3.2,0.8-4.9,1.6c-0.3,0.2-0.7,0.3-1,0.5
			l-0.6,0.3l-43.4-25.8L287.8,115.9z"/>
		<path class="st11" d="M330.6,142v4.7l0.6-0.3c7.3-4.1,13.2-0.7,13.1,7.7l4.1-2.3c0.1-11-7.6-15.5-17.3-10.1L330.6,142z"/>
		<polygon class="st12" points="330.6,142 287.3,116.2 287.2,120.9 330.6,146.7 		"/>
		<polygon class="st12" points="287.5,166.3 244.1,140.5 244.1,145.2 287.5,171 		"/>
		<polygon class="st16" points="305.5,156.2 262.1,130.4 244.1,140.5 287.5,166.3 		"/>
		<polygon class="st11" points="287.5,166.3 287.5,171 305.4,160.9 305.5,156.2 		"/>
		<polygon class="st12" points="266,178.5 222.6,152.7 222.6,157.4 265.9,183.2 		"/>
		<polygon class="st16" points="283.9,168.3 240.5,142.5 222.6,152.7 266,178.5 		"/>
		<polygon class="st11" points="266,178.5 265.9,183.2 283.9,173.1 283.9,168.3 		"/>
		<polygon class="st12" points="244.4,190.6 201,164.8 201,169.5 244.4,195.3 		"/>
		<polygon class="st16" points="262.4,180.5 219,154.7 201,164.8 244.4,190.6 		"/>
		<polygon class="st11" points="244.4,190.6 244.4,195.3 262.3,185.2 262.4,180.5 		"/>
		<polygon class="st12" points="222.9,202.8 179.5,177 179.4,181.7 222.8,207.5 		"/>
		<polygon class="st16" points="240.8,192.6 197.4,166.8 179.5,177 222.9,202.8 		"/>
		<polygon class="st11" points="222.9,202.8 222.8,207.5 240.8,197.4 240.8,192.6 		"/>
		<polygon class="st12" points="201.3,214.9 157.9,189.1 157.9,193.9 201.3,219.7 		"/>
		<polygon class="st16" points="219.3,204.8 175.9,179 157.9,189.1 201.3,214.9 		"/>
		<polygon class="st11" points="201.3,214.9 201.3,219.7 219.2,209.5 219.3,204.8 		"/>
		<polygon class="st12" points="179.8,227.1 136.4,201.3 136.3,206 179.7,231.8 		"/>
		<polygon class="st16" points="197.7,217 154.3,191.2 136.4,201.3 179.8,227.1 		"/>
		<polygon class="st11" points="179.8,227.1 179.7,231.8 197.7,221.7 197.7,217 		"/>
		<path class="st16" d="M132.2,203.6L132.2,203.6l0.6-0.3l43.4,25.8l-0.6,0.3l0,0c-4.8,2.7-9.2,7.4-12.4,12.8l-43.5-25.7
			C123,211.1,127.4,206.4,132.2,203.6z"/>
		<path class="st12" d="M163.2,242.2c-0.4,0.6-0.7,1.2-1,1.8l-43.4-25.8c0.3-0.6,0.6-1.1,0.9-1.7L163.2,242.2z"/>
		<polygon class="st12" points="309.1,154.1 265.7,128.3 265.7,133.1 309.1,158.9 		"/>
		<polygon class="st11" points="309.1,154.1 309.1,158.9 327,148.8 327,144 		"/>
		<polygon class="st16" points="327,144 283.7,118.2 265.7,128.3 309.1,154.1 		"/>
		<path class="st11" d="M162.2,256.8c0,5.2,2.2,8.5,5.7,9.2l-0.1,5.5c-5.8,0.1-9.8-4.4-9.8-12.4L162.2,256.8z"/>
		<path class="st12" d="M114.7,233.3l43.4,25.8c0,0.5,0,1,0,1.4l-43.4-25.6C114.7,234.4,114.7,233.9,114.7,233.3z"/>
		<path class="st17" d="M158.1,260.5c0.3,4.7,2.1,8.1,4.9,9.7l-43.4-25.7c-2.8-1.7-4.6-4.9-4.9-9.6L158.1,260.5z"/>
		<line class="st1" x1="163.8" y1="265.9" x2="166.9" y2="267.8"/>
		
			<linearGradient id="SVGID_5_" gradientUnits="userSpaceOnUse" x1="170.6409" y1="13.1809" x2="170.6409" y2="13.1809" gradientTransform="matrix(1 0 0 -1 0 321.0718)">
			<stop  offset="0" style="stop-color:#99A5C1"/>
			<stop  offset="1" style="stop-color:#68798F"/>
		</linearGradient>
		<path class="st18" d="M170.6,307.9"/>
		<polygon class="st2" points="166.9,267.8 163.8,265.9 166.9,264.1 170.1,266 		"/>
		
			<linearGradient id="SVGID_6_" gradientUnits="userSpaceOnUse" x1="209.9293" y1="63.0309" x2="213.4212" y2="63.0309" gradientTransform="matrix(1 0 0 -1 0 321.0718)">
			<stop  offset="0" style="stop-color:#99A5C1"/>
			<stop  offset="1" style="stop-color:#68798F"/>
		</linearGradient>
		<polygon class="st19" points="213.1,278.1 209.9,276.2 210.2,238 213.4,239.9 		"/>
		<polygon class="st2" points="213.4,239.9 210.2,238 213.4,236.3 216.5,238.1 		"/>
		
			<linearGradient id="SVGID_7_" gradientUnits="userSpaceOnUse" x1="246.3789" y1="83.0309" x2="249.8708" y2="83.0309" gradientTransform="matrix(1 0 0 -1 0 321.0718)">
			<stop  offset="0" style="stop-color:#99A5C1"/>
			<stop  offset="1" style="stop-color:#68798F"/>
		</linearGradient>
		<polygon class="st20" points="249.5,258.1 246.3,256.2 246.7,218 249.8,219.9 		"/>
		<polygon class="st2" points="249.8,219.9 246.7,218 249.8,216.3 253,218.2 		"/>
		
			<linearGradient id="SVGID_8_" gradientUnits="userSpaceOnUse" x1="285.0968" y1="104.0809" x2="288.5884" y2="104.0809" gradientTransform="matrix(1 0 0 -1 0 321.0718)">
			<stop  offset="0" style="stop-color:#99A5C1"/>
			<stop  offset="1" style="stop-color:#68798F"/>
		</linearGradient>
		<polygon class="st21" points="288.2,237 285.1,235.1 285.4,197 288.5,198.9 		"/>
		<polygon class="st2" points="288.5,198.9 285.4,197 288.5,195.2 291.7,197.1 		"/>
		
			<linearGradient id="SVGID_9_" gradientUnits="userSpaceOnUse" x1="320.5607" y1="123.8809" x2="324.0531" y2="123.8809" gradientTransform="matrix(1 0 0 -1 0 321.0718)">
			<stop  offset="0" style="stop-color:#99A5C1"/>
			<stop  offset="1" style="stop-color:#68798F"/>
		</linearGradient>
		<polygon class="st22" points="323.7,217.2 320.5,215.3 320.8,177.2 324,179.1 		"/>
		<polygon class="st2" points="324,179.1 320.8,177.2 324,175.4 327.2,177.3 		"/>
		<line class="st1" x1="355.7" y1="156.7" x2="358.9" y2="158.6"/>
		<polygon class="st2" points="358.9,158.6 355.7,156.7 358.9,154.9 362,156.8 		"/>
		<polygon class="st5" points="155.6,278.8 150.9,276 151,271 155.7,273.8 		"/>
		
			<linearGradient id="SVGID_10_" gradientUnits="userSpaceOnUse" x1="155.6409" y1="106.4309" x2="373.4409" y2="106.4309" gradientTransform="matrix(1 0 0 -1 0 321.0718)">
			<stop  offset="0" style="stop-color:#99A5C1"/>
			<stop  offset="1" style="stop-color:#CDD3DD"/>
		</linearGradient>
		<polygon class="st23" points="362,157 362,156.8 358.9,158.6 358.9,158.7 253,218.7 253,218.2 249.8,219.9 249.8,220.5 
			216.5,239.3 216.5,238.1 213.4,239.9 213.4,241.1 155.7,273.8 155.6,278.8 166.9,272.4 170,270.6 213.3,246.1 213.1,278.1 
			216.2,276.3 216.5,244.4 249.8,225.5 249.5,258.1 252.7,256.3 252.9,223.7 288.5,203.6 288.2,237 291.4,235.2 291.7,201.8 
			324,183.5 323.7,217.2 326.8,215.4 327.1,181.7 358.8,163.8 362,162 373.3,155.6 373.4,150.5 		"/>
		
			<linearGradient id="SVGID_11_" gradientUnits="userSpaceOnUse" x1="170.6409" y1="13.1809" x2="170.6409" y2="13.1809" gradientTransform="matrix(1 0 0 -1 0 321.0718)">
			<stop  offset="0" style="stop-color:#99A5C1"/>
			<stop  offset="1" style="stop-color:#CDD3DD"/>
		</linearGradient>
		<path class="st24" d="M170.6,307.9"/>
		
			<linearGradient id="SVGID_12_" gradientUnits="userSpaceOnUse" x1="283.2928" y1="183.4309" x2="309.2232" y2="183.4309" gradientTransform="matrix(1 0 0 -1 0 321.0718)">
			<stop  offset="0" style="stop-color:#99A5C1"/>
			<stop  offset="1" style="stop-color:#CDD3DD"/>
		</linearGradient>
		<polygon class="st25" points="283.5,135 309.2,120.5 308.9,140.2 283.3,154.8 		"/>
		
			<linearGradient id="SVGID_13_" gradientUnits="userSpaceOnUse" x1="271.8409" y1="196.7309" x2="309.2409" y2="196.7309" gradientTransform="matrix(1 0 0 -1 0 321.0718)">
			<stop  offset="0" style="stop-color:#E3E8F5"/>
			<stop  offset="1" style="stop-color:#FFFFFF"/>
		</linearGradient>
		<polygon class="st26" points="271.8,128.2 297.5,113.7 309.2,120.5 283.5,135 		"/>
		<polygon class="st5" points="283.5,135 283.3,154.8 271.5,147.9 271.8,128.2 		"/>
		
			<linearGradient id="SVGID_14_" gradientUnits="userSpaceOnUse" x1="244.4749" y1="162.0809" x2="270.4049" y2="162.0809" gradientTransform="matrix(1 0 0 -1 0 321.0718)">
			<stop  offset="0" style="stop-color:#99A5C1"/>
			<stop  offset="1" style="stop-color:#CDD3DD"/>
		</linearGradient>
		<polygon class="st27" points="244.7,156.4 270.4,141.9 270.1,161.6 244.4,176.1 		"/>
		
			<linearGradient id="SVGID_15_" gradientUnits="userSpaceOnUse" x1="233.0409" y1="175.3309" x2="270.4409" y2="175.3309" gradientTransform="matrix(1 0 0 -1 0 321.0718)">
			<stop  offset="0" style="stop-color:#E3E8F5"/>
			<stop  offset="1" style="stop-color:#FFFFFF"/>
		</linearGradient>
		<polygon class="st28" points="233,149.6 258.7,135.1 270.4,141.9 244.7,156.4 		"/>
		<polygon class="st5" points="244.7,156.4 244.4,176.1 232.7,169.3 233,149.6 		"/>
		
			<linearGradient id="SVGID_16_" gradientUnits="userSpaceOnUse" x1="206.3409" y1="141.6309" x2="232.271" y2="141.6309" gradientTransform="matrix(1 0 0 -1 0 321.0718)">
			<stop  offset="0" style="stop-color:#99A5C1"/>
			<stop  offset="1" style="stop-color:#CDD3DD"/>
		</linearGradient>
		<polygon class="st29" points="206.5,176.8 232.2,162.3 232,182 206.3,196.6 		"/>
		
			<linearGradient id="SVGID_17_" gradientUnits="userSpaceOnUse" x1="194.8409" y1="154.9309" x2="232.2409" y2="154.9309" gradientTransform="matrix(1 0 0 -1 0 321.0718)">
			<stop  offset="0" style="stop-color:#E3E8F5"/>
			<stop  offset="1" style="stop-color:#FFFFFF"/>
		</linearGradient>
		<polygon class="st30" points="194.8,170 220.5,155.5 232.2,162.3 206.5,176.8 		"/>
		<polygon class="st5" points="206.5,176.8 206.3,196.6 194.6,189.7 194.8,170 		"/>
		
			<linearGradient id="SVGID_18_" gradientUnits="userSpaceOnUse" x1="165.8814" y1="117.5309" x2="191.8118" y2="117.5309" gradientTransform="matrix(1 0 0 -1 0 321.0718)">
			<stop  offset="0" style="stop-color:#99A5C1"/>
			<stop  offset="1" style="stop-color:#CDD3DD"/>
		</linearGradient>
		<polygon class="st31" points="166.1,201 191.8,186.4 191.5,206.2 165.8,220.7 		"/>
		
			<linearGradient id="SVGID_19_" gradientUnits="userSpaceOnUse" x1="154.4409" y1="130.7809" x2="191.8409" y2="130.7809" gradientTransform="matrix(1 0 0 -1 0 321.0718)">
			<stop  offset="0" style="stop-color:#E3E8F5"/>
			<stop  offset="1" style="stop-color:#FFFFFF"/>
		</linearGradient>
		<polygon class="st32" points="154.4,194.1 180.1,179.6 191.8,186.4 166.1,201 		"/>
		<polygon class="st5" points="166.1,201 165.8,220.7 154.1,213.9 154.4,194.1 		"/>
		<g>
			<path class="st33" d="M227.8,40c0.7-6.1,5.5-11.2,11.5-12.4c0.8-10.3,9.3-18.4,19.8-18.4c8.9,0,16.6,5.9,19,14.2
				c0.9-0.2,1.8-0.4,2.7-0.4c3.3,0,6.4,1.6,8.2,4.3c7.4-0.1,13.5,5.5,14.3,12.6L227.8,40L227.8,40z"/>
		</g>
		<g>
			<path class="st33" d="M227.8,94.3c0.5-4.1,3.7-7.5,7.7-8.3c0.5-6.9,6.3-12.3,13.3-12.3c5.9,0,11.1,3.9,12.8,9.5
				c0.6-0.2,1.2-0.2,1.8-0.2c2.2,0,4.3,1.1,5.5,2.9c5,0,9,3.7,9.6,8.5h-50.7V94.3z"/>
		</g>
		<g>
			<path class="st33" d="M169.4,81.2c0.3-2.9,2.5-5.2,5.4-5.8c0.4-4.8,4.4-8.6,9.2-8.6c4.1,0,7.7,2.7,8.9,6.6
				c0.4-0.1,0.8-0.2,1.2-0.2c1.5,0,3,0.8,3.8,2c3.5,0,6.3,2.5,6.7,5.9h-35.2V81.2z"/>
		</g>
		
			<linearGradient id="SVGID_20_" gradientUnits="userSpaceOnUse" x1="151.0409" y1="110.3309" x2="373.4409" y2="110.3309" gradientTransform="matrix(1 0 0 -1 0 321.0718)">
			<stop  offset="0" style="stop-color:#E3E8F5"/>
			<stop  offset="1" style="stop-color:#FFFFFF"/>
		</linearGradient>
		<polygon class="st34" points="155.7,273.8 151,271 368.7,147.7 373.4,150.5 		"/>
	</g>
	<g id="amp-boven">
		<path class="st0" d="M68.8,40.2C-21,91.8-21,175.5,68.8,227.1s235.4,51.6,325.3,0c89.8-51.6,89.8-135.3,0-186.9"/>
		<path class="st0" d="M88.1,86.8C8.9,132.3,8.9,206,88.1,251.5s207.5,45.5,286.7,0s79.2-119.2,0-164.7"/>
		<path class="st0" d="M110.7,136.1c-66.7,38.3-66.7,100.4,0,138.7c66.7,38.3,174.8,38.3,241.4,0c66.7-38.3,66.7-100.4,0-138.7"/>
		<path class="st0" d="M133.6,183.1c-54,31-54,81.4,0,112.4s141.7,31,195.7,0s54-81.4,0-112.4"/>
	</g>
</g>
</svg>
