<?xml version="1.0" encoding="utf-8"?>
<!-- Generator: Adobe Illustrator 21.1.0, SVG Export Plug-In . SVG Version: 6.00 Build 0)  -->
<svg version="1.1" xmlns="http://www.w3.org/2000/svg" xmlns:xlink="http://www.w3.org/1999/xlink" x="0px" y="0px"
	 viewBox="0 0 115.4 103.4" style="enable-background:new 0 0 115.4 103.4;" xml:space="preserve">
<style type="text/css">
	.st0{fill:none;stroke:#00E6EA;stroke-width:2;stroke-miterlimit:10;}
	.st1{fill:none;stroke:#00E6EA;stroke-miterlimit:10;}
	.st2{fill-rule:evenodd;clip-rule:evenodd;fill:#CAD2DE;}
	.st3{fill-rule:evenodd;clip-rule:evenodd;fill:#DCE2EA;}
	.st4{fill-rule:evenodd;clip-rule:evenodd;fill:#ECF2FC;}
	.st5{fill-rule:evenodd;clip-rule:evenodd;fill:#062733;}
	.st6{fill-rule:evenodd;clip-rule:evenodd;fill:#38525C;}
	.st7{fill-rule:evenodd;clip-rule:evenodd;fill:#516871;}
</style>
<g id="amp-onder">
	<g>
		<path class="st0" d="M97.5,46.5c-22-12.6-57.7-12.6-79.7,0"/>
		<path class="st0" d="M17.8,46.5c-22,12.6-22,33.2,0,45.8c22,12.6,57.7,12.6,79.7,0c22-12.6,22-33.2,0-45.8"/>
	</g>
	<g>
		<path class="st1" d="M94,49.1c-20.1-11-52.6-11-72.7,0"/>
		<path class="st1" d="M21.3,49.1c-20.1,11-20.1,28.7,0,39.7c20.1,11,52.6,11,72.7,0C114,77.8,114,60,94,49.1"/>
	</g>
</g>
<g id="artwork">
	<g>
		<polygon class="st2" points="87,54.6 86.8,55.4 86.6,56.2 86.3,57 85.9,57.8 85.5,58.6 85,59.3 84.4,60.1 83.8,60.8 83.1,61.6 
			82.3,62.3 81.4,63 80.5,63.7 79.5,64.3 78.5,65 77.4,65.6 76.3,66.1 75.1,66.7 73.9,67.1 72.6,67.6 71.4,68 70.1,68.4 68.8,68.7 
			67.4,69 66.1,69.2 64.7,69.5 63.3,69.6 61.9,69.8 60.5,69.9 59.1,69.9 57.7,69.9 56.2,69.9 54.8,69.9 53.4,69.8 52,69.6 
			50.6,69.5 49.3,69.3 47.9,69 46.6,68.7 45.3,68.4 44,68 42.7,67.6 41.4,67.1 40.2,66.7 39.1,66.1 37.9,65.6 36.8,65 35.8,64.3 
			34.8,63.7 33.9,63 33,62.3 32.3,61.6 31.6,60.8 30.9,60.1 30.4,59.3 29.8,58.6 29.4,57.8 29,57 28.7,56.2 28.5,55.4 28.3,54.6 
			28.3,62.8 28.5,63.6 28.7,64.4 29,65.2 29.4,66 29.8,66.8 30.4,67.6 30.9,68.4 31.6,69.1 32.3,69.8 33,70.5 33.9,71.2 34.8,71.9 
			35.8,72.6 36.8,73.2 37.9,73.8 39.1,74.4 40.2,74.9 41.4,75.4 42.7,75.8 44,76.3 45.3,76.6 46.6,77 47.9,77.2 49.3,77.5 
			50.6,77.7 52,77.9 53.4,78 54.8,78.1 56.2,78.2 57.7,78.2 59.1,78.2 60.5,78.1 61.9,78 63.3,77.9 64.7,77.7 66.1,77.5 67.4,77.2 
			68.8,77 70.1,76.6 71.4,76.3 72.6,75.8 73.9,75.4 75.1,74.9 76.3,74.4 77.4,73.8 78.5,73.2 79.5,72.6 80.5,71.9 81.4,71.2 
			82.3,70.5 83.1,69.8 83.8,69.1 84.4,68.4 85,67.6 85.5,66.8 85.9,66 86.3,65.2 86.6,64.4 86.8,63.6 87,62.8 		"/>
		<path class="st3" d="M36.8,41c11.5-6.6,30.2-6.6,41.7,0c11.5,6.6,11.5,17.4,0,24.1c-11.5,6.6-30.2,6.6-41.7,0
			C25.3,58.4,25.3,47.7,36.8,41z"/>
		<path class="st4" d="M38.2,40.9c10.7-6.2,28.1-6.2,38.8,0c10.7,6.2,10.7,16.2,0,22.4c-10.7,6.2-28.1,6.2-38.8,0
			C27.5,57.1,27.5,47.1,38.2,40.9z"/>
	</g>
	<g>
		<polygon class="st2" points="87,36.5 86.8,37.4 86.6,38.2 86.3,39 85.9,39.8 85.5,40.5 85,41.3 84.4,42.1 83.8,42.8 83.1,43.6 
			82.3,44.3 81.4,45 80.5,45.7 79.5,46.3 78.5,46.9 77.4,47.5 76.3,48.1 75.1,48.6 73.9,49.1 72.6,49.6 71.4,50 70.1,50.3 
			68.8,50.7 67.4,51 66.1,51.2 64.7,51.4 63.3,51.6 61.9,51.8 60.5,51.8 59.1,51.9 57.7,51.9 56.2,51.9 54.8,51.8 53.4,51.8 
			52,51.6 50.6,51.4 49.3,51.2 47.9,51 46.6,50.7 45.3,50.3 44,50 42.7,49.6 41.4,49.1 40.2,48.6 39.1,48.1 37.9,47.5 36.8,46.9 
			35.8,46.3 34.8,45.7 33.9,45 33,44.3 32.3,43.6 31.6,42.8 30.9,42.1 30.4,41.3 29.8,40.5 29.4,39.8 29,39 28.7,38.2 28.5,37.4 
			28.3,36.5 28.3,44.8 28.5,45.6 28.7,46.4 29,47.2 29.4,48 29.8,48.8 30.4,49.6 30.9,50.3 31.6,51.1 32.3,51.8 33,52.5 33.9,53.2 
			34.8,53.9 35.8,54.6 36.8,55.2 37.9,55.8 39.1,56.4 40.2,56.9 41.4,57.4 42.7,57.8 44,58.2 45.3,58.6 46.6,58.9 47.9,59.2 
			49.3,59.5 50.6,59.7 52,59.9 53.4,60 54.8,60.1 56.2,60.2 57.7,60.2 59.1,60.2 60.5,60.1 61.9,60 63.3,59.9 64.7,59.7 66.1,59.5 
			67.4,59.2 68.8,58.9 70.1,58.6 71.4,58.2 72.6,57.8 73.9,57.4 75.1,56.9 76.3,56.4 77.4,55.8 78.5,55.2 79.5,54.6 80.5,53.9 
			81.4,53.2 82.3,52.5 83.1,51.8 83.8,51.1 84.4,50.3 85,49.6 85.5,48.8 85.9,48 86.3,47.2 86.6,46.4 86.8,45.6 87,44.8 		"/>
		<path class="st3" d="M36.8,23c11.5-6.6,30.2-6.6,41.7,0c11.5,6.6,11.5,17.4,0,24.1c-11.5,6.6-30.2,6.6-41.7,0
			C25.3,40.4,25.3,29.7,36.8,23z"/>
		<path class="st4" d="M38.2,22.9c10.7-6.2,28.1-6.2,38.8,0c10.7,6.2,10.7,16.2,0,22.4c-10.7,6.2-28.1,6.2-38.8,0
			C27.5,39.1,27.5,29.1,38.2,22.9z"/>
	</g>
	<g>
		<polygon class="st5" points="87,18.5 86.8,19.3 86.6,20.1 86.3,20.9 85.9,21.7 85.5,22.5 85,23.3 84.4,24.1 83.8,24.8 83.1,25.5 
			82.3,26.2 81.4,26.9 80.5,27.6 79.5,28.3 78.5,28.9 77.4,29.5 76.3,30.1 75.1,30.6 73.9,31.1 72.6,31.5 71.4,32 70.1,32.3 
			68.8,32.7 67.4,32.9 66.1,33.2 64.7,33.4 63.3,33.6 61.9,33.7 60.5,33.8 59.1,33.9 57.7,33.9 56.2,33.9 54.8,33.8 53.4,33.7 
			52,33.6 50.6,33.4 49.3,33.2 47.9,32.9 46.6,32.7 45.3,32.3 44,32 42.7,31.5 41.4,31.1 40.2,30.6 39.1,30.1 37.9,29.5 36.8,28.9 
			35.8,28.3 34.8,27.6 33.9,26.9 33,26.2 32.3,25.5 31.6,24.8 30.9,24.1 30.4,23.3 29.8,22.5 29.4,21.7 29,20.9 28.7,20.1 
			28.5,19.3 28.3,18.5 28.3,26.8 28.5,27.6 28.7,28.4 29,29.2 29.4,30 29.8,30.8 30.4,31.5 30.9,32.3 31.6,33 32.3,33.8 33,34.5 
			33.9,35.2 34.8,35.9 35.8,36.5 36.8,37.2 37.9,37.8 39.1,38.3 40.2,38.9 41.4,39.3 42.7,39.8 44,40.2 45.3,40.6 46.6,40.9 
			47.9,41.2 49.3,41.5 50.6,41.7 52,41.8 53.4,42 54.8,42.1 56.2,42.1 57.7,42.2 59.1,42.1 60.5,42.1 61.9,42 63.3,41.8 64.7,41.7 
			66.1,41.5 67.4,41.2 68.8,40.9 70.1,40.6 71.4,40.2 72.6,39.8 73.9,39.3 75.1,38.9 76.3,38.3 77.4,37.8 78.5,37.2 79.5,36.5 
			80.5,35.9 81.4,35.2 82.3,34.5 83.1,33.8 83.8,33 84.4,32.3 85,31.5 85.5,30.8 85.9,30 86.3,29.2 86.6,28.4 86.8,27.6 87,26.8 		
			"/>
		<path class="st6" d="M36.8,5C48.3-1.7,67-1.7,78.5,5C90,11.6,90,22.4,78.5,29c-11.5,6.6-30.2,6.6-41.7,0
			C25.3,22.4,25.3,11.6,36.8,5z"/>
		<path class="st7" d="M38.2,4.9c10.7-6.2,28.1-6.2,38.8,0c10.7,6.2,10.7,16.2,0,22.4c-10.7,6.2-28.1,6.2-38.8,0
			C27.5,21.1,27.5,11,38.2,4.9z"/>
	</g>
</g>
</svg>
